{
    "variants": {
        "facing=up": { "model": "lomas_scm:sapBlock" },
        "facing=north": { "model": "lomas_scm:sapBlock" },
        "facing=south": { "model": "lomas_scm:sapBlock", "y": 180, "uvlock": true },
        "facing=west":  { "model": "lomas_scm:sapBlock", "y": 270, "uvlock": true },
        "facing=east":  { "model": "lomas_scm:sapBlock", "y": 90, "uvlock": true }
    }
}
