{
    "parent": "block/inner_stairs",
    "textures": {
        "bottom": "lomas_bigf:blocks/roughstairs",
        "top": "lomas_bigf:blocks/roughstairs",
        "side": "lomas_bigf:blocks/roughstairs"
    }
}